
*** Running vivado
    with args -log design_1_ADC_GET_DATA_0_0.vds -m64 -product Vivado -mode batch -messageDb vivado.pb -notrace -source design_1_ADC_GET_DATA_0_0.tcl


****** Vivado v2019.1 (64-bit)
  **** SW Build 2552052 on Fri May 24 14:49:42 MDT 2019
  **** IP Build 2548770 on Fri May 24 18:01:18 MDT 2019
    ** Copyright 1986-2019 Xilinx, Inc. All Rights Reserved.

source design_1_ADC_GET_DATA_0_0.tcl -notrace
INFO: [IP_Flow 19-234] Refreshing IP repositories
WARNING: [IP_Flow 19-1694] Ignoring duplicate Bus Definition IP file 'bt.local:interface:diff:1.0' found within IP repository 'c:/project/ip_repo'.
File in use: c:/project/ip_repo/adc_control_1.0/diff.xml
File ignored: c:/project/ip_repo/ADC_GET_DATA_1.0/diff.xml
WARNING: [IP_Flow 19-1694] Ignoring duplicate Bus Abstraction IP file 'bt.local:interface:diff_rtl:1.0' found within IP repository 'c:/project/ip_repo'.
File in use: c:/project/ip_repo/adc_control_1.0/diff_rtl.xml
File ignored: c:/project/ip_repo/ADC_GET_DATA_1.0/diff_rtl.xml
INFO: [IP_Flow 19-1700] Loaded user IP repository 'c:/project/ip_repo'.
INFO: [IP_Flow 19-2313] Loaded Vivado IP repository 'C:/Xilinx/Vivado/2019.1/data/ip'.
WARNING: [IP_Flow 19-1663] Duplicate IP found for 'xilinx.com:user:ADC2AXI_sub:1.0'. The one found in IP location 'c:/project/ip_repo' will take precedence over the same IP in location c:/project/ip_repo/ADC2AXI_sub
Command: synth_design -top design_1_ADC_GET_DATA_0_0 -part xc7a100tfgg484-1 -mode out_of_context
Starting synth_design
Attempting to get a license for feature 'Synthesis' and/or device 'xc7a100t'
INFO: [Common 17-349] Got license for feature 'Synthesis' and/or device 'xc7a100t'
INFO: [Device 21-403] Loading part xc7a100tfgg484-1
INFO: Launching helper process for spawning children vivado processes
INFO: Helper process launched with PID 11584 
---------------------------------------------------------------------------------
Starting RTL Elaboration : Time (s): cpu = 00:00:02 ; elapsed = 00:00:03 . Memory (MB): peak = 834.918 ; gain = 177.031
---------------------------------------------------------------------------------
INFO: [Synth 8-6157] synthesizing module 'design_1_ADC_GET_DATA_0_0' [c:/project/test_ADC_GET_DATA2/test_ADC_GET_DATA2.srcs/sources_1/bd/design_1/ip/design_1_ADC_GET_DATA_0_0/synth/design_1_ADC_GET_DATA_0_0.sv:56]
INFO: [Synth 8-6157] synthesizing module 'diff' [c:/project/test_ADC_GET_DATA2/test_ADC_GET_DATA2.srcs/sources_1/bd/design_1/ipshared/4a6e/hdl/adc_get_data.sv:4]
INFO: [Synth 8-6155] done synthesizing module 'diff' (0#1) [c:/project/test_ADC_GET_DATA2/test_ADC_GET_DATA2.srcs/sources_1/bd/design_1/ipshared/4a6e/hdl/adc_get_data.sv:4]
INFO: [Synth 8-6157] synthesizing module 'diff' [c:/project/test_ADC_GET_DATA2/test_ADC_GET_DATA2.srcs/sources_1/bd/design_1/ipshared/4a6e/hdl/adc_get_data.sv:4]
INFO: [Synth 8-6155] done synthesizing module 'diff' (0#1) [c:/project/test_ADC_GET_DATA2/test_ADC_GET_DATA2.srcs/sources_1/bd/design_1/ipshared/4a6e/hdl/adc_get_data.sv:4]
INFO: [Synth 8-6157] synthesizing module 'diff' [c:/project/test_ADC_GET_DATA2/test_ADC_GET_DATA2.srcs/sources_1/bd/design_1/ipshared/4a6e/hdl/adc_get_data.sv:4]
INFO: [Synth 8-6155] done synthesizing module 'diff' (0#1) [c:/project/test_ADC_GET_DATA2/test_ADC_GET_DATA2.srcs/sources_1/bd/design_1/ipshared/4a6e/hdl/adc_get_data.sv:4]
INFO: [Synth 8-6157] synthesizing module 'diff' [c:/project/test_ADC_GET_DATA2/test_ADC_GET_DATA2.srcs/sources_1/bd/design_1/ipshared/4a6e/hdl/adc_get_data.sv:4]
INFO: [Synth 8-6155] done synthesizing module 'diff' (0#1) [c:/project/test_ADC_GET_DATA2/test_ADC_GET_DATA2.srcs/sources_1/bd/design_1/ipshared/4a6e/hdl/adc_get_data.sv:4]
INFO: [Synth 8-6157] synthesizing module 'diff' [c:/project/test_ADC_GET_DATA2/test_ADC_GET_DATA2.srcs/sources_1/bd/design_1/ipshared/4a6e/hdl/adc_get_data.sv:4]
INFO: [Synth 8-6155] done synthesizing module 'diff' (0#1) [c:/project/test_ADC_GET_DATA2/test_ADC_GET_DATA2.srcs/sources_1/bd/design_1/ipshared/4a6e/hdl/adc_get_data.sv:4]
INFO: [Synth 8-6157] synthesizing module 'adc_get_data' [c:/project/test_ADC_GET_DATA2/test_ADC_GET_DATA2.srcs/sources_1/bd/design_1/ipshared/4a6e/hdl/adc_get_data.sv:11]
INFO: [Synth 8-6157] synthesizing module 'OBUFDS' [C:/Xilinx/Vivado/2019.1/scripts/rt/data/unisim_comp.v:46012]
	Parameter CAPACITANCE bound to: DONT_CARE - type: string 
	Parameter IOSTANDARD bound to: DEFAULT - type: string 
	Parameter SLEW bound to: SLOW - type: string 
INFO: [Synth 8-6155] done synthesizing module 'OBUFDS' (1#1) [C:/Xilinx/Vivado/2019.1/scripts/rt/data/unisim_comp.v:46012]
INFO: [Synth 8-6157] synthesizing module 'IBUFDS' [C:/Xilinx/Vivado/2019.1/scripts/rt/data/unisim_comp.v:32871]
	Parameter CAPACITANCE bound to: DONT_CARE - type: string 
	Parameter DIFF_TERM bound to: TRUE - type: string 
	Parameter DQS_BIAS bound to: FALSE - type: string 
	Parameter IBUF_DELAY_VALUE bound to: 0 - type: string 
	Parameter IBUF_LOW_PWR bound to: TRUE - type: string 
	Parameter IFD_DELAY_VALUE bound to: AUTO - type: string 
	Parameter IOSTANDARD bound to: LVDS_25 - type: string 
INFO: [Synth 8-6155] done synthesizing module 'IBUFDS' (2#1) [C:/Xilinx/Vivado/2019.1/scripts/rt/data/unisim_comp.v:32871]
INFO: [Synth 8-6157] synthesizing module 'clk_wiz_1' [c:/project/test_ADC_GET_DATA2/test_ADC_GET_DATA2.srcs/sources_1/bd/design_1/ip/design_1_ADC_GET_DATA_0_0/src/clk_wiz_1/clk_wiz_1.v:71]
INFO: [Synth 8-6157] synthesizing module 'clk_wiz_1_clk_wiz' [c:/project/test_ADC_GET_DATA2/test_ADC_GET_DATA2.srcs/sources_1/bd/design_1/ip/design_1_ADC_GET_DATA_0_0/src/clk_wiz_1/clk_wiz_1_clk_wiz.v:69]
INFO: [Synth 8-6157] synthesizing module 'IBUF' [C:/Xilinx/Vivado/2019.1/scripts/rt/data/unisim_comp.v:32856]
	Parameter CAPACITANCE bound to: DONT_CARE - type: string 
	Parameter IBUF_DELAY_VALUE bound to: 0 - type: string 
	Parameter IBUF_LOW_PWR bound to: TRUE - type: string 
	Parameter IFD_DELAY_VALUE bound to: AUTO - type: string 
	Parameter IOSTANDARD bound to: DEFAULT - type: string 
INFO: [Synth 8-6155] done synthesizing module 'IBUF' (3#1) [C:/Xilinx/Vivado/2019.1/scripts/rt/data/unisim_comp.v:32856]
INFO: [Synth 8-6157] synthesizing module 'MMCME2_ADV' [C:/Xilinx/Vivado/2019.1/scripts/rt/data/unisim_comp.v:39813]
	Parameter BANDWIDTH bound to: OPTIMIZED - type: string 
	Parameter CLKFBOUT_MULT_F bound to: 9.000000 - type: float 
	Parameter CLKFBOUT_PHASE bound to: 0.000000 - type: float 
	Parameter CLKFBOUT_USE_FINE_PS bound to: FALSE - type: string 
	Parameter CLKIN1_PERIOD bound to: 10.000000 - type: float 
	Parameter CLKIN2_PERIOD bound to: 0.000000 - type: float 
	Parameter CLKOUT0_DIVIDE_F bound to: 9.000000 - type: float 
	Parameter CLKOUT0_DUTY_CYCLE bound to: 0.500000 - type: float 
	Parameter CLKOUT0_PHASE bound to: 0.000000 - type: float 
	Parameter CLKOUT0_USE_FINE_PS bound to: FALSE - type: string 
	Parameter CLKOUT1_DIVIDE bound to: 9 - type: integer 
	Parameter CLKOUT1_DUTY_CYCLE bound to: 0.500000 - type: float 
	Parameter CLKOUT1_PHASE bound to: 160.000000 - type: float 
	Parameter CLKOUT1_USE_FINE_PS bound to: FALSE - type: string 
	Parameter CLKOUT2_DIVIDE bound to: 1 - type: integer 
	Parameter CLKOUT2_DUTY_CYCLE bound to: 0.500000 - type: float 
	Parameter CLKOUT2_PHASE bound to: 0.000000 - type: float 
	Parameter CLKOUT2_USE_FINE_PS bound to: FALSE - type: string 
	Parameter CLKOUT3_DIVIDE bound to: 1 - type: integer 
	Parameter CLKOUT3_DUTY_CYCLE bound to: 0.500000 - type: float 
	Parameter CLKOUT3_PHASE bound to: 0.000000 - type: float 
	Parameter CLKOUT3_USE_FINE_PS bound to: FALSE - type: string 
	Parameter CLKOUT4_CASCADE bound to: FALSE - type: string 
	Parameter CLKOUT4_DIVIDE bound to: 1 - type: integer 
	Parameter CLKOUT4_DUTY_CYCLE bound to: 0.500000 - type: float 
	Parameter CLKOUT4_PHASE bound to: 0.000000 - type: float 
	Parameter CLKOUT4_USE_FINE_PS bound to: FALSE - type: string 
	Parameter CLKOUT5_DIVIDE bound to: 1 - type: integer 
	Parameter CLKOUT5_DUTY_CYCLE bound to: 0.500000 - type: float 
	Parameter CLKOUT5_PHASE bound to: 0.000000 - type: float 
	Parameter CLKOUT5_USE_FINE_PS bound to: FALSE - type: string 
	Parameter CLKOUT6_DIVIDE bound to: 1 - type: integer 
	Parameter CLKOUT6_DUTY_CYCLE bound to: 0.500000 - type: float 
	Parameter CLKOUT6_PHASE bound to: 0.000000 - type: float 
	Parameter CLKOUT6_USE_FINE_PS bound to: FALSE - type: string 
	Parameter COMPENSATION bound to: ZHOLD - type: string 
	Parameter DIVCLK_DIVIDE bound to: 1 - type: integer 
	Parameter IS_CLKINSEL_INVERTED bound to: 1'b0 
	Parameter IS_PSEN_INVERTED bound to: 1'b0 
	Parameter IS_PSINCDEC_INVERTED bound to: 1'b0 
	Parameter IS_PWRDWN_INVERTED bound to: 1'b0 
	Parameter IS_RST_INVERTED bound to: 1'b0 
	Parameter REF_JITTER1 bound to: 0.010000 - type: float 
	Parameter REF_JITTER2 bound to: 0.010000 - type: float 
	Parameter SS_EN bound to: FALSE - type: string 
	Parameter SS_MODE bound to: CENTER_HIGH - type: string 
	Parameter SS_MOD_PERIOD bound to: 10000 - type: integer 
	Parameter STARTUP_WAIT bound to: FALSE - type: string 
INFO: [Synth 8-6155] done synthesizing module 'MMCME2_ADV' (4#1) [C:/Xilinx/Vivado/2019.1/scripts/rt/data/unisim_comp.v:39813]
INFO: [Synth 8-6157] synthesizing module 'BUFG' [C:/Xilinx/Vivado/2019.1/scripts/rt/data/unisim_comp.v:1075]
INFO: [Synth 8-6155] done synthesizing module 'BUFG' (5#1) [C:/Xilinx/Vivado/2019.1/scripts/rt/data/unisim_comp.v:1075]
INFO: [Synth 8-6155] done synthesizing module 'clk_wiz_1_clk_wiz' (6#1) [c:/project/test_ADC_GET_DATA2/test_ADC_GET_DATA2.srcs/sources_1/bd/design_1/ip/design_1_ADC_GET_DATA_0_0/src/clk_wiz_1/clk_wiz_1_clk_wiz.v:69]
INFO: [Synth 8-6155] done synthesizing module 'clk_wiz_1' (7#1) [c:/project/test_ADC_GET_DATA2/test_ADC_GET_DATA2.srcs/sources_1/bd/design_1/ip/design_1_ADC_GET_DATA_0_0/src/clk_wiz_1/clk_wiz_1.v:71]
INFO: [Synth 8-6155] done synthesizing module 'adc_get_data' (8#1) [c:/project/test_ADC_GET_DATA2/test_ADC_GET_DATA2.srcs/sources_1/bd/design_1/ipshared/4a6e/hdl/adc_get_data.sv:11]
INFO: [Synth 8-6155] done synthesizing module 'design_1_ADC_GET_DATA_0_0' (9#1) [c:/project/test_ADC_GET_DATA2/test_ADC_GET_DATA2.srcs/sources_1/bd/design_1/ip/design_1_ADC_GET_DATA_0_0/synth/design_1_ADC_GET_DATA_0_0.sv:56]
---------------------------------------------------------------------------------
Finished RTL Elaboration : Time (s): cpu = 00:00:03 ; elapsed = 00:00:04 . Memory (MB): peak = 901.398 ; gain = 243.512
---------------------------------------------------------------------------------

Report Check Netlist: 
+------+------------------+-------+---------+-------+------------------+
|      |Item              |Errors |Warnings |Status |Description       |
+------+------------------+-------+---------+-------+------------------+
|1     |multi_driven_nets |      0|        0|Passed |Multi driven nets |
+------+------------------+-------+---------+-------+------------------+
---------------------------------------------------------------------------------
Start Handling Custom Attributes
---------------------------------------------------------------------------------
---------------------------------------------------------------------------------
Finished Handling Custom Attributes : Time (s): cpu = 00:00:04 ; elapsed = 00:00:04 . Memory (MB): peak = 901.398 ; gain = 243.512
---------------------------------------------------------------------------------
---------------------------------------------------------------------------------
Finished RTL Optimization Phase 1 : Time (s): cpu = 00:00:04 ; elapsed = 00:00:04 . Memory (MB): peak = 901.398 ; gain = 243.512
---------------------------------------------------------------------------------
INFO: [Netlist 29-17] Analyzing 6 Unisim elements for replacement
INFO: [Netlist 29-28] Unisim Transformation completed in 0 CPU seconds
INFO: [Project 1-570] Preparing netlist for logic optimization

Processing XDC Constraints
Initializing timing engine
Parsing XDC File [c:/project/test_ADC_GET_DATA2/test_ADC_GET_DATA2.srcs/sources_1/bd/design_1/ip/design_1_ADC_GET_DATA_0_0/src/clk_wiz_1/clk_wiz_1.xdc] for cell 'inst/clk_wizard_adc/inst'
Finished Parsing XDC File [c:/project/test_ADC_GET_DATA2/test_ADC_GET_DATA2.srcs/sources_1/bd/design_1/ip/design_1_ADC_GET_DATA_0_0/src/clk_wiz_1/clk_wiz_1.xdc] for cell 'inst/clk_wizard_adc/inst'
INFO: [Project 1-236] Implementation specific constraints were found while reading constraint file [c:/project/test_ADC_GET_DATA2/test_ADC_GET_DATA2.srcs/sources_1/bd/design_1/ip/design_1_ADC_GET_DATA_0_0/src/clk_wiz_1/clk_wiz_1.xdc]. These constraints will be ignored for synthesis but will be used in implementation. Impacted constraints are listed in the file [.Xil/design_1_ADC_GET_DATA_0_0_propImpl.xdc].
Resolution: To avoid this warning, move constraints listed in [.Xil/design_1_ADC_GET_DATA_0_0_propImpl.xdc] to another XDC file and exclude this new file from synthesis with the used_in_synthesis property (File Properties dialog in GUI) and re-run elaboration/synthesis.
INFO: [Timing 38-2] Deriving generated clocks
Parsing XDC File [C:/project/test_ADC_GET_DATA2/test_ADC_GET_DATA2.runs/design_1_ADC_GET_DATA_0_0_synth_1/dont_touch.xdc]
Finished Parsing XDC File [C:/project/test_ADC_GET_DATA2/test_ADC_GET_DATA2.runs/design_1_ADC_GET_DATA_0_0_synth_1/dont_touch.xdc]
INFO: [Project 1-236] Implementation specific constraints were found while reading constraint file [C:/project/test_ADC_GET_DATA2/test_ADC_GET_DATA2.runs/design_1_ADC_GET_DATA_0_0_synth_1/dont_touch.xdc]. These constraints will be ignored for synthesis but will be used in implementation. Impacted constraints are listed in the file [.Xil/design_1_ADC_GET_DATA_0_0_propImpl.xdc].
Resolution: To avoid this warning, move constraints listed in [.Xil/design_1_ADC_GET_DATA_0_0_propImpl.xdc] to another XDC file and exclude this new file from synthesis with the used_in_synthesis property (File Properties dialog in GUI) and re-run elaboration/synthesis.
Completed Processing XDC Constraints

Netlist sorting complete. Time (s): cpu = 00:00:00 ; elapsed = 00:00:00 . Memory (MB): peak = 1013.285 ; gain = 0.000
INFO: [Project 1-111] Unisim Transformation Summary:
  A total of 1 instances were transformed.
  OBUFDS => OBUFDS_DUAL_BUF (INV, OBUFDS, OBUFDS): 1 instances

Constraint Validation Runtime : Time (s): cpu = 00:00:00 ; elapsed = 00:00:00.018 . Memory (MB): peak = 1013.285 ; gain = 0.000
---------------------------------------------------------------------------------
Finished Constraint Validation : Time (s): cpu = 00:00:09 ; elapsed = 00:00:10 . Memory (MB): peak = 1013.285 ; gain = 355.398
---------------------------------------------------------------------------------
---------------------------------------------------------------------------------
Start Loading Part and Timing Information
---------------------------------------------------------------------------------
Loading part: xc7a100tfgg484-1
---------------------------------------------------------------------------------
Finished Loading Part and Timing Information : Time (s): cpu = 00:00:09 ; elapsed = 00:00:10 . Memory (MB): peak = 1013.285 ; gain = 355.398
---------------------------------------------------------------------------------
---------------------------------------------------------------------------------
Start Applying 'set_property' XDC Constraints
---------------------------------------------------------------------------------
Applied set_property DONT_TOUCH = true for inst/clk_wizard_adc/inst. (constraint file  C:/project/test_ADC_GET_DATA2/test_ADC_GET_DATA2.runs/design_1_ADC_GET_DATA_0_0_synth_1/dont_touch.xdc, line 11).
Applied set_property DONT_TOUCH = true for inst/clk_wizard_adc. (constraint file  auto generated constraint, line ).
---------------------------------------------------------------------------------
Finished applying 'set_property' XDC Constraints : Time (s): cpu = 00:00:09 ; elapsed = 00:00:10 . Memory (MB): peak = 1013.285 ; gain = 355.398
---------------------------------------------------------------------------------
---------------------------------------------------------------------------------
Finished RTL Optimization Phase 2 : Time (s): cpu = 00:00:09 ; elapsed = 00:00:10 . Memory (MB): peak = 1013.285 ; gain = 355.398
---------------------------------------------------------------------------------

Report RTL Partitions: 
+-+--------------+------------+----------+
| |RTL Partition |Replication |Instances |
+-+--------------+------------+----------+
+-+--------------+------------+----------+
---------------------------------------------------------------------------------
Start RTL Component Statistics 
---------------------------------------------------------------------------------
Detailed RTL Component Info : 
+---Adders : 
	   2 Input     32 Bit       Adders := 5     
	   2 Input      8 Bit       Adders := 1     
	   2 Input      4 Bit       Adders := 1     
	   2 Input      3 Bit       Adders := 1     
+---Registers : 
	               18 Bit    Registers := 2     
	                8 Bit    Registers := 2     
	                4 Bit    Registers := 1     
	                1 Bit    Registers := 8     
+---Muxes : 
	   2 Input     18 Bit        Muxes := 5     
	   2 Input      3 Bit        Muxes := 1     
	   2 Input      1 Bit        Muxes := 10    
	   4 Input      1 Bit        Muxes := 1     
---------------------------------------------------------------------------------
Finished RTL Component Statistics 
---------------------------------------------------------------------------------
---------------------------------------------------------------------------------
Start RTL Hierarchical Component Statistics 
---------------------------------------------------------------------------------
Hierarchical RTL Component report 
Module adc_get_data 
Detailed RTL Component Info : 
+---Adders : 
	   2 Input     32 Bit       Adders := 5     
	   2 Input      8 Bit       Adders := 1     
	   2 Input      4 Bit       Adders := 1     
	   2 Input      3 Bit       Adders := 1     
+---Registers : 
	               18 Bit    Registers := 2     
	                8 Bit    Registers := 2     
	                4 Bit    Registers := 1     
	                1 Bit    Registers := 8     
+---Muxes : 
	   2 Input     18 Bit        Muxes := 5     
	   2 Input      3 Bit        Muxes := 1     
	   2 Input      1 Bit        Muxes := 10    
	   4 Input      1 Bit        Muxes := 1     
---------------------------------------------------------------------------------
Finished RTL Hierarchical Component Statistics
---------------------------------------------------------------------------------
---------------------------------------------------------------------------------
Start Part Resource Summary
---------------------------------------------------------------------------------
Part Resources:
DSPs: 240 (col length:80)
BRAMs: 270 (col length: RAMB18 80 RAMB36 40)
---------------------------------------------------------------------------------
Finished Part Resource Summary
---------------------------------------------------------------------------------
---------------------------------------------------------------------------------
Start Cross Boundary and Area Optimization
---------------------------------------------------------------------------------
Warning: Parallel synthesis criteria is not met 
INFO: [Synth 8-3886] merging instance 'inst/adc_current_clk_num_reg_reg[3]' (FDE) to 'inst/adc_current_clk_num_reg_reg[7]'
INFO: [Synth 8-3886] merging instance 'inst/adc_current_clk_num_reg_reg[4]' (FDE) to 'inst/adc_current_clk_num_reg_reg[7]'
INFO: [Synth 8-3886] merging instance 'inst/adc_current_clk_num_reg_reg[5]' (FDE) to 'inst/adc_current_clk_num_reg_reg[7]'
INFO: [Synth 8-3886] merging instance 'inst/adc_current_clk_num_reg_reg[6]' (FDE) to 'inst/adc_current_clk_num_reg_reg[7]'
INFO: [Synth 8-3333] propagating constant 0 across sequential element (\inst/adc_current_clk_num_reg_reg[7] )
INFO: [Synth 8-3886] merging instance 'inst/adc_data_neg_reg[0]' (FDE_1) to 'inst/adc_data_neg_reg[1]'
INFO: [Synth 8-3886] merging instance 'inst/adc_data_neg_reg[1]' (FDE_1) to 'inst/adc_data_neg_reg[4]'
INFO: [Synth 8-3886] merging instance 'inst/adc_data_pos_reg[2]' (FDE) to 'inst/adc_data_pos_reg[15]'
INFO: [Synth 8-3886] merging instance 'inst/adc_data_pos_reg[3]' (FDE) to 'inst/adc_data_pos_reg[15]'
INFO: [Synth 8-3886] merging instance 'inst/adc_data_neg_reg[4]' (FDE_1) to 'inst/adc_data_neg_reg[5]'
INFO: [Synth 8-3886] merging instance 'inst/adc_data_neg_reg[5]' (FDE_1) to 'inst/adc_data_neg_reg[8]'
INFO: [Synth 8-3886] merging instance 'inst/adc_data_pos_reg[6]' (FDE) to 'inst/adc_data_pos_reg[15]'
INFO: [Synth 8-3886] merging instance 'inst/adc_data_pos_reg[7]' (FDE) to 'inst/adc_data_pos_reg[15]'
INFO: [Synth 8-3886] merging instance 'inst/adc_data_neg_reg[8]' (FDE_1) to 'inst/adc_data_neg_reg[9]'
INFO: [Synth 8-3886] merging instance 'inst/adc_data_neg_reg[9]' (FDE_1) to 'inst/adc_data_neg_reg[12]'
INFO: [Synth 8-3886] merging instance 'inst/adc_data_pos_reg[10]' (FDE) to 'inst/adc_data_pos_reg[15]'
INFO: [Synth 8-3886] merging instance 'inst/adc_data_pos_reg[11]' (FDE) to 'inst/adc_data_pos_reg[15]'
INFO: [Synth 8-3886] merging instance 'inst/adc_data_neg_reg[12]' (FDE_1) to 'inst/adc_data_neg_reg[13]'
INFO: [Synth 8-3886] merging instance 'inst/adc_data_neg_reg[13]' (FDE_1) to 'inst/adc_data_neg_reg[16]'
INFO: [Synth 8-3886] merging instance 'inst/adc_data_pos_reg[14]' (FDE) to 'inst/adc_data_pos_reg[15]'
INFO: [Synth 8-3333] propagating constant 0 across sequential element (\inst/adc_data_pos_reg[15] )
INFO: [Synth 8-3886] merging instance 'inst/adc_data_neg_reg[16]' (FDE_1) to 'inst/adc_data_neg_reg[17]'
INFO: [Synth 8-3333] propagating constant 0 across sequential element (\inst/adc_data_neg_reg[17] )
---------------------------------------------------------------------------------
Finished Cross Boundary and Area Optimization : Time (s): cpu = 00:00:10 ; elapsed = 00:00:11 . Memory (MB): peak = 1013.285 ; gain = 355.398
---------------------------------------------------------------------------------

Report RTL Partitions: 
+-+--------------+------------+----------+
| |RTL Partition |Replication |Instances |
+-+--------------+------------+----------+
+-+--------------+------------+----------+
---------------------------------------------------------------------------------
Start Applying XDC Timing Constraints
---------------------------------------------------------------------------------
INFO: [Synth 8-5578] Moved timing constraint from pin 'inst/clk_wizard_adc/inst/clk_in1' to pin 'inst/IBUFDS_fpga_clk/O'
INFO: [Synth 8-5819] Moved 1 constraints on hierarchical pins to their respective driving/loading pins
---------------------------------------------------------------------------------
Finished Applying XDC Timing Constraints : Time (s): cpu = 00:00:17 ; elapsed = 00:00:18 . Memory (MB): peak = 1013.285 ; gain = 355.398
---------------------------------------------------------------------------------
---------------------------------------------------------------------------------
Start Timing Optimization
---------------------------------------------------------------------------------
---------------------------------------------------------------------------------
Finished Timing Optimization : Time (s): cpu = 00:00:17 ; elapsed = 00:00:18 . Memory (MB): peak = 1013.285 ; gain = 355.398
---------------------------------------------------------------------------------

Report RTL Partitions: 
+-+--------------+------------+----------+
| |RTL Partition |Replication |Instances |
+-+--------------+------------+----------+
+-+--------------+------------+----------+
---------------------------------------------------------------------------------
Start Technology Mapping
---------------------------------------------------------------------------------
---------------------------------------------------------------------------------
Finished Technology Mapping : Time (s): cpu = 00:00:17 ; elapsed = 00:00:18 . Memory (MB): peak = 1013.285 ; gain = 355.398
---------------------------------------------------------------------------------

Report RTL Partitions: 
+-+--------------+------------+----------+
| |RTL Partition |Replication |Instances |
+-+--------------+------------+----------+
+-+--------------+------------+----------+
---------------------------------------------------------------------------------
Start IO Insertion
---------------------------------------------------------------------------------
---------------------------------------------------------------------------------
Start Flattening Before IO Insertion
---------------------------------------------------------------------------------
---------------------------------------------------------------------------------
Finished Flattening Before IO Insertion
---------------------------------------------------------------------------------
---------------------------------------------------------------------------------
Start Final Netlist Cleanup
---------------------------------------------------------------------------------
---------------------------------------------------------------------------------
Finished Final Netlist Cleanup
---------------------------------------------------------------------------------
---------------------------------------------------------------------------------
Finished IO Insertion : Time (s): cpu = 00:00:19 ; elapsed = 00:00:20 . Memory (MB): peak = 1018.086 ; gain = 360.199
---------------------------------------------------------------------------------

Report Check Netlist: 
+------+------------------+-------+---------+-------+------------------+
|      |Item              |Errors |Warnings |Status |Description       |
+------+------------------+-------+---------+-------+------------------+
|1     |multi_driven_nets |      0|        0|Passed |Multi driven nets |
+------+------------------+-------+---------+-------+------------------+
---------------------------------------------------------------------------------
Start Renaming Generated Instances
---------------------------------------------------------------------------------
---------------------------------------------------------------------------------
Finished Renaming Generated Instances : Time (s): cpu = 00:00:19 ; elapsed = 00:00:20 . Memory (MB): peak = 1018.086 ; gain = 360.199
---------------------------------------------------------------------------------

Report RTL Partitions: 
+-+--------------+------------+----------+
| |RTL Partition |Replication |Instances |
+-+--------------+------------+----------+
+-+--------------+------------+----------+
---------------------------------------------------------------------------------
Start Rebuilding User Hierarchy
---------------------------------------------------------------------------------
---------------------------------------------------------------------------------
Finished Rebuilding User Hierarchy : Time (s): cpu = 00:00:19 ; elapsed = 00:00:20 . Memory (MB): peak = 1018.086 ; gain = 360.199
---------------------------------------------------------------------------------
---------------------------------------------------------------------------------
Start Renaming Generated Ports
---------------------------------------------------------------------------------
---------------------------------------------------------------------------------
Finished Renaming Generated Ports : Time (s): cpu = 00:00:19 ; elapsed = 00:00:20 . Memory (MB): peak = 1018.086 ; gain = 360.199
---------------------------------------------------------------------------------
---------------------------------------------------------------------------------
Start Handling Custom Attributes
---------------------------------------------------------------------------------
---------------------------------------------------------------------------------
Finished Handling Custom Attributes : Time (s): cpu = 00:00:19 ; elapsed = 00:00:20 . Memory (MB): peak = 1018.086 ; gain = 360.199
---------------------------------------------------------------------------------
---------------------------------------------------------------------------------
Start Renaming Generated Nets
---------------------------------------------------------------------------------
---------------------------------------------------------------------------------
Finished Renaming Generated Nets : Time (s): cpu = 00:00:19 ; elapsed = 00:00:20 . Memory (MB): peak = 1018.086 ; gain = 360.199
---------------------------------------------------------------------------------
---------------------------------------------------------------------------------
Start Writing Synthesis Report
---------------------------------------------------------------------------------

Report BlackBoxes: 
+-+--------------+----------+
| |BlackBox name |Instances |
+-+--------------+----------+
+-+--------------+----------+

Report Cell Usage: 
+------+-----------+------+
|      |Cell       |Count |
+------+-----------+------+
|1     |BUFG       |     3|
|2     |CARRY4     |    16|
|3     |LUT1       |     2|
|4     |LUT2       |     6|
|5     |LUT3       |    14|
|6     |LUT4       |    34|
|7     |LUT5       |    25|
|8     |LUT6       |    55|
|9     |MMCME2_ADV |     1|
|10    |FDRE       |    40|
|11    |FDSE       |     1|
|12    |IBUF       |     1|
|13    |IBUFDS     |     4|
|14    |OBUFDS     |     1|
+------+-----------+------+

Report Instance Areas: 
+------+-------------------+------------------+------+
|      |Instance           |Module            |Cells |
+------+-------------------+------------------+------+
|1     |top                |                  |   203|
|2     |  inst             |adc_get_data      |   203|
|3     |    clk_wizard_adc |clk_wiz_1         |     5|
|4     |      inst         |clk_wiz_1_clk_wiz |     5|
+------+-------------------+------------------+------+
---------------------------------------------------------------------------------
Finished Writing Synthesis Report : Time (s): cpu = 00:00:19 ; elapsed = 00:00:20 . Memory (MB): peak = 1018.086 ; gain = 360.199
---------------------------------------------------------------------------------
Synthesis finished with 0 errors, 0 critical warnings and 0 warnings.
Synthesis Optimization Runtime : Time (s): cpu = 00:00:13 ; elapsed = 00:00:18 . Memory (MB): peak = 1018.086 ; gain = 248.313
Synthesis Optimization Complete : Time (s): cpu = 00:00:19 ; elapsed = 00:00:20 . Memory (MB): peak = 1018.086 ; gain = 360.199
INFO: [Project 1-571] Translating synthesized netlist
INFO: [Netlist 29-17] Analyzing 22 Unisim elements for replacement
INFO: [Netlist 29-28] Unisim Transformation completed in 0 CPU seconds
INFO: [Project 1-570] Preparing netlist for logic optimization
WARNING: [Opt 31-35] Removing redundant IBUF, inst/clk_wizard_adc/inst/clkin1_ibufg, from the path connected to top-level port: fpga_clkx_p 
Resolution: The tool has removed redundant IBUF. To resolve this warning, check for redundant IBUF in the input design.
INFO: [Opt 31-138] Pushed 0 inverter(s) to 0 load pin(s).
Netlist sorting complete. Time (s): cpu = 00:00:00 ; elapsed = 00:00:00 . Memory (MB): peak = 1041.113 ; gain = 0.000
INFO: [Project 1-111] Unisim Transformation Summary:
  A total of 1 instances were transformed.
  OBUFDS => OBUFDS_DUAL_BUF (INV, OBUFDS, OBUFDS): 1 instances

INFO: [Common 17-83] Releasing license: Synthesis
72 Infos, 4 Warnings, 0 Critical Warnings and 0 Errors encountered.
synth_design completed successfully
synth_design: Time (s): cpu = 00:00:25 ; elapsed = 00:00:27 . Memory (MB): peak = 1041.113 ; gain = 644.504
INFO: [Common 17-600] The following parameters have non-default value.
tcl.collectionResultDisplayLimit
Netlist sorting complete. Time (s): cpu = 00:00:00 ; elapsed = 00:00:00 . Memory (MB): peak = 1041.113 ; gain = 0.000
WARNING: [Constraints 18-5210] No constraints selected for write.
Resolution: This message can indicate that there are no constraints for the design, or it can indicate that the used_in flags are set such that the constraints are ignored. This later case is used when running synth_design to not write synthesis constraints to the resulting checkpoint. Instead, project constraints are read when the synthesized design is opened.
INFO: [Common 17-1381] The checkpoint 'C:/project/test_ADC_GET_DATA2/test_ADC_GET_DATA2.runs/design_1_ADC_GET_DATA_0_0_synth_1/design_1_ADC_GET_DATA_0_0.dcp' has been generated.
WARNING: [Common 17-576] 'use_project_ipc' is deprecated. This option is deprecated and no longer used.
INFO: [Coretcl 2-1648] Added synthesis output to IP cache for IP design_1_ADC_GET_DATA_0_0, cache-ID = 83d9aa079bc7ba9f
INFO: [Coretcl 2-1174] Renamed 3 cell refs.
Netlist sorting complete. Time (s): cpu = 00:00:00 ; elapsed = 00:00:00 . Memory (MB): peak = 1041.113 ; gain = 0.000
WARNING: [Constraints 18-5210] No constraints selected for write.
Resolution: This message can indicate that there are no constraints for the design, or it can indicate that the used_in flags are set such that the constraints are ignored. This later case is used when running synth_design to not write synthesis constraints to the resulting checkpoint. Instead, project constraints are read when the synthesized design is opened.
INFO: [Common 17-1381] The checkpoint 'C:/project/test_ADC_GET_DATA2/test_ADC_GET_DATA2.runs/design_1_ADC_GET_DATA_0_0_synth_1/design_1_ADC_GET_DATA_0_0.dcp' has been generated.
INFO: [runtcl-4] Executing : report_utilization -file design_1_ADC_GET_DATA_0_0_utilization_synth.rpt -pb design_1_ADC_GET_DATA_0_0_utilization_synth.pb
INFO: [Common 17-206] Exiting Vivado at Tue Jun 23 12:33:24 2020...
